what,kind,bundleId,bundleVersion,description,time
stopped,bundle,org.eclipse.mylyn.tasks.bugs,3.2.0.v20090617-0100-e3x,"org.eclipse.mylyn.tasks.bugs",1258066214090
stopped,bundle,org.eclipse.mylyn.tasks.ui,3.2.0.v20090617-0100-e3x,"org.eclipse.mylyn.tasks.ui",1258066214090
stopped,bundle,org.eclipse.wst.dtd.ui,1.0.400.v200904300717,"org.eclipse.wst.dtd.ui",1258066214091
stopped,bundle,org.eclipse.wst.xsd.ui,1.2.203.v200904300717,"org.eclipse.wst.xsd.ui",1258066214103
stopped,bundle,org.eclipse.wst.xml.ui,1.1.0.v200905242047,"org.eclipse.wst.xml.ui",1258066214103
stopped,bundle,org.eclipse.wst.common.ui,1.1.402.v200901262305,"org.eclipse.wst.common.ui",1258066214116
stopped,bundle,org.eclipse.wst.sse.ui,1.1.100.v200905141750,"org.eclipse.wst.sse.ui",1258066214142
stopped,bundle,org.eclipse.search,3.5.0.v20090526-2000,"org.eclipse.search",1258066214142
stopped,bundle,org.eclipse.ltk.ui.refactoring,3.4.100.v20090604,"org.eclipse.ltk.ui.refactoring",1258066214148
stopped,bundle,org.eclipse.team.cvs.ui,3.3.200.I20090521-1750,"org.eclipse.team.cvs.ui",1258066214229
